Chapter 5 Marker Identification
…
We look at the marker genes in the clusters in sample “treated”.

treated.markers <- FindAllMarkers(subset(filtered, subset = Sample_Name == "SampleTag02_hs"), 
                                  assay = "RNA",
                                  only.pos = TRUE, 
                                  min.pct = 0.25, 
                                  logfc.threshold = 0.25)

Let’s look at the top 2 significant marker genes in each cluster.

treated.markers %>%
    group_by(cluster) %>%
    slice_max(n = 2, order_by = avg_log2FC)

# A tibble: 22 × 7
# Groups:   cluster [11]
       p_val avg_log2FC pct.1 pct.2 p_val_adj cluster gene           
       <dbl>      <dbl> <dbl> <dbl>     <dbl> <fct>   <chr>          
 1 2.21e- 39       2.43 0.394 0.096 6.23e- 35 0       LINC00861      
 2 1.16e- 26       2.34 0.458 0.195 3.28e- 22 0       PDE3B          
 3 8.15e- 37       2.79 0.306 0.107 2.30e- 32 1       RGS1           
 4 5.57e- 87       2.10 0.605 0.22  1.57e- 82 1       MAL            
 5 1.35e- 97       4.61 0.268 0.006 3.80e- 93 2       RAD54L         
 6 1.24e-126       4.12 0.355 0.011 3.49e-122 2       UBE2C          
 7 1.75e-104       6.29 0.267 0.006 4.94e-100 3       CX3CR1         
 8 6.94e-200       6.29 0.507 0.014 1.96e-195 3       FCGR3A         
 9 2.30e-  3       4.87 0.273 0.063 1   e+  0 4       TOX            
10 8.67e-  6       4.77 0.273 0.034 2.45e-  1 4       ENSG00000225718
# ℹ 12 more rows
…
