Chapter 6 Marker Identification
…
We look at the marker genes in the clusters in sample “treated”.

treated.markers <- FindAllMarkers(subset(integrate.filtered.rna, subset = Sample_Name == "treated"), 
                                  assay = "RNA",
                                  only.pos = TRUE, 
                                  min.pct = 0.25, 
                                  logfc.threshold = 0.25)

Let’s look at the top 2 significant marker genes in each cluster.

treated.markers %>%
    group_by(cluster) %>%
    slice_max(n = 2, order_by = avg_log2FC)

# A tibble: 26 × 7
# Groups:   cluster [13]
       p_val avg_log2FC pct.1 pct.2 p_val_adj cluster gene      
       <dbl>      <dbl> <dbl> <dbl>     <dbl> <fct>   <chr>     
 1 9.89e-158       2.63 0.744 0.212 1.91e-153 0       MAL       
 2 3.62e-104       2.10 0.734 0.379 7.01e-100 0       PCED1B-AS1
 3 0               5.06 0.961 0.055 0         1       GNLY      
 4 3.65e-259       4.13 0.892 0.108 7.07e-255 1       CCL5      
 5 5.52e- 12       1.07 0.75  0.515 1.07e-  7 2       HSPD1     
 6 6.86e- 17       1.00 0.957 0.787 1.33e- 12 2       NPM1      
 7 5.53e- 82       2.41 0.594 0.119 1.07e- 77 3       RGS1      
 8 5.81e- 25       1.82 0.304 0.09  1.12e- 20 3       FOXP3     
 9 1.24e-122       2.25 0.916 0.276 2.39e-118 4       LTA       
10 1.65e-159       1.97 0.941 0.225 3.20e-155 4       MIR155HG  
# ℹ 16 more rows
…
